week4/decomposed_tb.vcd
$date
	Mon Sep 12 16:21:56 2022
$end
$version
	Icarus Verilog
$end
$timescale
	1ns
$end
$scope module decomposed_tb $end
$var wire 1 ! s $end
$var wire 1 " cout $end
$var reg 1 # cin $end
$var reg 1 $ x0 $end
$var reg 1 % y0 $end
$scope module a1 $end
$var wire 1 # cin $end
$var wire 1 " cout $end
$var wire 1 $ x0 $end
$var wire 1 % y0 $end
$var wire 1 & s0 $end
$var wire 1 ! s $end
$var wire 1 ' c1 $end
$var wire 1 ( c0 $end
$scope module stage0 $end
$var wire 1 ( cout $end
$var wire 1 & s $end
$var wire 1 $ x $end
$var wire 1 % y $end
$upscope $end
$scope module stage1 $end
$var wire 1 ' cout $end
$var wire 1 ! s $end
$var wire 1 # x $end
$var wire 1 & y $end
$upscope $end
$upscope $end
$upscope $end
$enddefinitions $end
#0
$dumpvars
0(
0'
0&
0%
0$
0#
0"
0!
$end
#20
1!
1&
1%
#40
0%
1$
#60
0!
1"
0&
1(
1%
#80
0"
0(
1!
0%
0$
1#
#100
1"
0!
1'
1&
1%
#120
0%
1$
#140
1!
0'
0&
1(
1%
