Week8/q3/Q3_tb.vcd
$date
	Mon Oct 31 16:07:45 2022
$end
$version
	Icarus Verilog
$end
$timescale
	1ns
$end
$scope module Q3_tb $end
$var wire 16 ! y [15:0] $end
$var reg 1 " En $end
$var reg 4 # w [3:0] $end
$scope module m1 $end
$var wire 1 " En $end
$var wire 4 $ w [3:0] $end
$var wire 4 % y1 [3:0] $end
$var wire 16 & y [15:0] $end
$scope module stage0 $end
$var wire 1 " En $end
$var wire 2 ' w [1:0] $end
$var reg 4 ( y [3:0] $end
$upscope $end
$scope module stage1 $end
$var wire 1 ) En $end
$var wire 2 * w [1:0] $end
$var reg 4 + y [3:0] $end
$upscope $end
$scope module stage2 $end
$var wire 1 , En $end
$var wire 2 - w [1:0] $end
$var reg 4 . y [3:0] $end
$upscope $end
$scope module stage3 $end
$var wire 1 / En $end
$var wire 2 0 w [1:0] $end
$var reg 4 1 y [3:0] $end
$upscope $end
$scope module stage4 $end
$var wire 1 2 En $end
$var wire 2 3 w [1:0] $end
$var reg 4 4 y [3:0] $end
$upscope $end
$upscope $end
$upscope $end
$enddefinitions $end
#0
$dumpvars
b0 4
b0 3
02
b0 1
b0 0
0/
b0 .
b0 -
0,
b1 +
b0 *
1)
b1 (
b0 '
b1 &
b1 %
b0 $
b0 #
1"
b1 !
$end
#20
b10 !
b10 &
b10 +
b1 *
b1 -
b1 0
b1 3
b1 #
b1 $
#40
b100 !
b100 &
b100 +
b10 *
b10 -
b10 0
b10 3
b10 #
b10 $
#60
b1000 !
b1000 &
b1000 +
b11 *
b11 -
b11 0
b11 3
b11 #
b11 $
#80
b1 .
1,
0)
b10 %
b10 (
b10000 !
b10000 &
b0 +
b1 '
b0 *
b0 -
b0 0
b0 3
b100 #
b100 $
#100
b100000 !
b100000 &
b10 .
b1 *
b1 -
b1 0
b1 3
b101 #
b101 $
#120
b1000000 !
b1000000 &
b100 .
b10 *
b10 -
b10 0
b10 3
b110 #
b110 $
#140
b10000000 !
b10000000 &
b1000 .
b11 *
b11 -
b11 0
b11 3
b111 #
b111 $
#160
b1 1
1/
0,
b100 %
b100 (
b100000000 !
b100000000 &
b0 .
b10 '
b0 *
b0 -
b0 0
b0 3
b1000 #
b1000 $
#180
b1000000000 !
b1000000000 &
b10 1
b1 *
b1 -
b1 0
b1 3
b1001 #
b1001 $
#200
b10000000000 !
b10000000000 &
b100 1
b10 *
b10 -
b10 0
b10 3
b1010 #
b1010 $
#220
b100000000000 !
b100000000000 &
b1000 1
b11 *
b11 -
b11 0
b11 3
b1011 #
b1011 $
#240
b1 4
12
0/
b1000 %
b1000 (
b1000000000000 !
b1000000000000 &
b0 1
b11 '
b0 *
b0 -
b0 0
b0 3
b1100 #
b1100 $
#260
b10000000000000 !
b10000000000000 &
b10 4
b1 *
b1 -
b1 0
b1 3
b1101 #
b1101 $
#280
b100000000000000 !
b100000000000000 &
b100 4
b10 *
b10 -
b10 0
b10 3
b1110 #
b1110 $
#300
b1000000000000000 !
b1000000000000000 &
b1000 4
b11 *
b11 -
b11 0
b11 3
b1111 #
b1111 $
